{
  "cordova-plugin-whitelist": {
    "source": {
      "type": "registry",
      "id": "cordova-plugin-whitelist@1"
    },
    "is_top_level": true,
    "variables": {}
  },
  "cordova-plugin-vibration": {
    "source": {
      "type": "registry",
      "id": "cordova-plugin-vibration"
    },
    "is_top_level": true,
    "variables": {}
  },
  "cordova-plugin-firebase-realtime-database": {
    "source": {
      "type": "registry",
      "id": "cordova-plugin-firebase-realtime-database"
    },
    "is_top_level": true,
    "variables": {}
  },
  "cordova-plugin-firestore": {
    "source": {
      "type": "registry",
      "id": "cordova-plugin-firestore@3.0.0"
    },
    "is_top_level": true,
    "variables": {}
  },
  "cordova-plugin-androidx": {
    "source": {
      "type": "registry",
      "id": "cordova-plugin-androidx@^1.0.2"
    },
    "is_top_level": false,
    "variables": {}
  },
  "cordova-plugin-androidx-adapter": {
    "source": {
      "type": "registry",
      "id": "cordova-plugin-androidx-adapter@^1.1.0"
    },
    "is_top_level": false,
    "variables": {}
  },
  "cordova-plugin-enable-multidex": {
    "source": {
      "type": "registry",
      "id": "cordova-plugin-enable-multidex"
    },
    "is_top_level": true,
    "variables": {}
  }
}