{
  "project_info": {
    "project_number": "876406033236",
    "firebase_url": "https://snakeadventure-f93e6.firebaseio.com",
    "project_id": "snakeadventure-f93e6",
    "storage_bucket": "snakeadventure-f93e6.appspot.com"
  },
  "client": [
    {
      "client_info": {
        "mobilesdk_app_id": "1:876406033236:android:8e4a2111669cd5587696c1",
        "android_client_info": {
          "package_name": "com.example.snake"
        }
      },
      "oauth_client": [
        {
          "client_id": "876406033236-buitvvp4hfdrt9ih7fht0nns80s7jaho.apps.googleusercontent.com",
          "client_type": 3
        }
      ],
      "api_key": [
        {
          "current_key": "AIzaSyAxp82qHndSWLkqLVrT3nsBwhGZHZZaCqY"
        }
      ],
      "services": {
        "appinvite_service": {
          "other_platform_oauth_client": [
            {
              "client_id": "876406033236-buitvvp4hfdrt9ih7fht0nns80s7jaho.apps.googleusercontent.com",
              "client_type": 3
            }
          ]
        }
      }
    }
  ],
  "configuration_version": "1"
}